rpc/alpha.client.delegates.out

./tezos-client rpc get /chains/main/blocks/head/context/contracts
[ "[CONTRACT_HASH]",
  "[CONTRACT_HASH]",
  "[CONTRACT_HASH]",
  "[PUBLIC_KEY_HASH]",
  "[PUBLIC_KEY_HASH]",
  "[PUBLIC_KEY_HASH]",
  "[PUBLIC_KEY_HASH]",
  "[PUBLIC_KEY_HASH]" ]

./tezos-client rpc get /chains/main/blocks/head/context/delegates
[ "[PUBLIC_KEY_HASH]",
  "[PUBLIC_KEY_HASH]",
  "[PUBLIC_KEY_HASH]",
  "[PUBLIC_KEY_HASH]",
  "[PUBLIC_KEY_HASH]" ]

./tezos-client rpc get '/chains/main/blocks/head/context/delegates/[PUBLIC_KEY_HASH]'
{ "full_balance": "4000000000000", "current_frozen_deposits": "200000000000",
  "frozen_deposits": "200000000000", "staking_balance": "4000000000000",
  "delegated_contracts": [ "[PUBLIC_KEY_HASH]" ],
  "delegated_balance": "0", "deactivated": false, "grace_period": 5,
  "voting_power": "4000000000000" }

./tezos-client rpc get '/chains/main/blocks/head/context/delegates/[PUBLIC_KEY_HASH]/full_balance'
"4000000000000"

./tezos-client rpc get '/chains/main/blocks/head/context/delegates/[PUBLIC_KEY_HASH]/frozen_deposits'
"200000000000"

./tezos-client rpc get '/chains/main/blocks/head/context/delegates/[PUBLIC_KEY_HASH]/deactivated'
false

./tezos-client rpc get '/chains/main/blocks/head/context/delegates/[PUBLIC_KEY_HASH]/delegated_balance'
"0"

./tezos-client rpc get '/chains/main/blocks/head/context/delegates/[PUBLIC_KEY_HASH]/delegated_contracts'
[ "[PUBLIC_KEY_HASH]" ]

./tezos-client rpc get '/chains/main/blocks/head/context/delegates/[PUBLIC_KEY_HASH]/grace_period'
5

./tezos-client rpc get '/chains/main/blocks/head/context/delegates/[PUBLIC_KEY_HASH]/staking_balance'
"4000000000000"

./tezos-client rpc get '/chains/main/blocks/head/context/delegates/[PUBLIC_KEY_HASH]/voting_power'
"4000000000000"

./tezos-client rpc get '/chains/main/blocks/head/context/delegates/[PUBLIC_KEY_HASH]'
Fatal error:
  Command failed: The provided public key hash ([PUBLIC_KEY_HASH]) is not the address of a registered delegate. If you own this account and want to register it as a delegate, use a delegation operation to delegate the account to itself.
  

./tezos-client rpc get '/chains/main/blocks/head/context/delegates/[PUBLIC_KEY_HASH]/full_balance'
Fatal error:
  Command failed: The implicit account ([PUBLIC_KEY_HASH]) whose balance was requested is not a registered delegate. To get the balance of this account you can use the ../context/contracts/[PUBLIC_KEY_HASH]/balance RPC.
                  The provided public key hash ([PUBLIC_KEY_HASH]) is not the address of a registered delegate. If you own this account and want to register it as a delegate, use a delegation operation to delegate the account to itself.
  

./tezos-client rpc get '/chains/main/blocks/head/context/delegates/[PUBLIC_KEY_HASH]/frozen_deposits'
Fatal error:
  Command failed: The provided public key hash ([PUBLIC_KEY_HASH]) is not the address of a registered delegate. If you own this account and want to register it as a delegate, use a delegation operation to delegate the account to itself.
  

./tezos-client rpc get '/chains/main/blocks/head/context/delegates/[PUBLIC_KEY_HASH]/deactivated'
Fatal error:
  Command failed: The provided public key hash ([PUBLIC_KEY_HASH]) is not the address of a registered delegate. If you own this account and want to register it as a delegate, use a delegation operation to delegate the account to itself.
  

./tezos-client rpc get '/chains/main/blocks/head/context/delegates/[PUBLIC_KEY_HASH]/delegated_balance'
Fatal error:
  Command failed: The provided public key hash ([PUBLIC_KEY_HASH]) is not the address of a registered delegate. If you own this account and want to register it as a delegate, use a delegation operation to delegate the account to itself.
  

./tezos-client rpc get '/chains/main/blocks/head/context/delegates/[PUBLIC_KEY_HASH]/delegated_contracts'
Fatal error:
  Command failed: The provided public key hash ([PUBLIC_KEY_HASH]) is not the address of a registered delegate. If you own this account and want to register it as a delegate, use a delegation operation to delegate the account to itself.
  

./tezos-client rpc get '/chains/main/blocks/head/context/delegates/[PUBLIC_KEY_HASH]/grace_period'
Fatal error:
  Command failed: The provided public key hash ([PUBLIC_KEY_HASH]) is not the address of a registered delegate. If you own this account and want to register it as a delegate, use a delegation operation to delegate the account to itself.
  

./tezos-client rpc get '/chains/main/blocks/head/context/delegates/[PUBLIC_KEY_HASH]/staking_balance'
Fatal error:
  Command failed: The provided public key hash ([PUBLIC_KEY_HASH]) is not the address of a registered delegate. If you own this account and want to register it as a delegate, use a delegation operation to delegate the account to itself.
  

./tezos-client rpc get '/chains/main/blocks/head/context/delegates/[PUBLIC_KEY_HASH]/voting_power'
Fatal error:
  Command failed: The provided public key hash ([PUBLIC_KEY_HASH]) is not the address of a registered delegate. If you own this account and want to register it as a delegate, use a delegation operation to delegate the account to itself.
  
