rpc/hangzhou.proxy_server.others.out

./tezos-client rpc get /chains/main/blocks/head/context/constants
{ "proof_of_work_nonce_size": 8, "nonce_length": 32,
  "max_anon_ops_per_block": 132, "max_operation_data_length": 32768,
  "max_proposals_per_delegate": 20, "max_micheline_node_count": 50000,
  "max_micheline_bytes_limit": 50000,
  "max_allowed_global_constants_depth": 10000,
  "cache_layout": [ "100000000" ], "michelson_maximum_type_size": 2001,
  "preserved_cycles": 2, "blocks_per_cycle": 8, "blocks_per_commitment": 4,
  "blocks_per_roll_snapshot": 4, "blocks_per_voting_period": 64,
  "time_between_blocks": [ "1", "0" ], "endorsers_per_block": 256,
  "hard_gas_limit_per_operation": "1040000",
  "hard_gas_limit_per_block": "5200000", "proof_of_work_threshold": "-1",
  "tokens_per_roll": "8000000000", "seed_nonce_revelation_tip": "125000",
  "origination_size": 257, "block_security_deposit": "640000000",
  "endorsement_security_deposit": "2500000",
  "baking_reward_per_endorsement": [ "78125", "11719" ],
  "endorsement_reward": [ "78125", "52083" ], "cost_per_byte": "250",
  "hard_storage_limit_per_operation": "60000", "quorum_min": 2000,
  "quorum_max": 7000, "min_proposal_quorum": 500, "initial_endorsers": 1,
  "delay_per_missing_endorsement": "1", "minimal_block_delay": "1",
  "liquidity_baking_subsidy": "2500000",
  "liquidity_baking_sunset_level": 4096,
  "liquidity_baking_escape_ema_threshold": 1000000 }

./tezos-client rpc get /chains/main/blocks/head/helpers/baking_rights
[ { "level": 3, "delegate": "[PUBLIC_KEY_HASH]",
    "priority": 0, "estimated_time": "[TIMESTAMP]" },
  { "level": 3, "delegate": "[PUBLIC_KEY_HASH]",
    "priority": 2, "estimated_time": "[TIMESTAMP]" },
  { "level": 3, "delegate": "[PUBLIC_KEY_HASH]",
    "priority": 5, "estimated_time": "[TIMESTAMP]" },
  { "level": 3, "delegate": "[PUBLIC_KEY_HASH]",
    "priority": 7, "estimated_time": "[TIMESTAMP]" },
  { "level": 3, "delegate": "[PUBLIC_KEY_HASH]",
    "priority": 10, "estimated_time": "[TIMESTAMP]" } ]

./tezos-client rpc get '/chains/main/blocks/head/helpers/current_level?offset=0'
{ "level": 2, "level_position": 1, "cycle": 0, "cycle_position": 1,
  "expected_commitment": false }

./tezos-client rpc get /chains/main/blocks/head/helpers/endorsing_rights
[ { "level": 2, "delegate": "[PUBLIC_KEY_HASH]",
    "slots":
      [ 10, 15, 17, 19, 23, 26, 32, 36, 37, 41, 42, 44, 50, 52, 57, 62, 68,
        69, 77, 84, 87, 89, 90, 95, 96, 103, 112, 117, 119, 124, 126, 129,
        137, 148, 156, 160, 161, 167, 170, 177, 191, 194, 198, 200, 207, 208,
        214, 225, 241, 248, 252 ], "estimated_time": "[TIMESTAMP]" },
  { "level": 2, "delegate": "[PUBLIC_KEY_HASH]",
    "slots":
      [ 11, 20, 21, 25, 29, 31, 40, 49, 54, 55, 59, 63, 64, 65, 66, 70, 75,
        93, 97, 104, 109, 118, 130, 138, 141, 142, 144, 145, 169, 173, 178,
        183, 185, 190, 195, 203, 204, 216, 218, 224, 243, 249, 250, 251,
        254 ], "estimated_time": "[TIMESTAMP]" },
  { "level": 2, "delegate": "[PUBLIC_KEY_HASH]",
    "slots":
      [ 0, 2, 3, 4, 5, 9, 14, 22, 24, 35, 47, 48, 53, 58, 73, 94, 102, 105,
        106, 114, 115, 120, 125, 127, 131, 133, 135, 139, 146, 147, 149, 152,
        153, 158, 164, 166, 168, 172, 180, 184, 186, 188, 196, 205, 206, 211,
        215, 221, 223, 228, 231, 253 ],
    "estimated_time": "[TIMESTAMP]" },
  { "level": 2, "delegate": "[PUBLIC_KEY_HASH]",
    "slots":
      [ 7, 8, 12, 18, 33, 38, 43, 46, 51, 56, 60, 67, 71, 74, 76, 78, 79, 80,
        83, 85, 98, 99, 101, 108, 110, 111, 122, 123, 128, 140, 150, 151,
        155, 159, 162, 163, 165, 171, 174, 175, 181, 201, 209, 210, 212, 213,
        217, 219, 220, 229, 230, 234, 236, 237, 238, 239, 240, 242, 245, 246,
        247 ], "estimated_time": "[TIMESTAMP]" },
  { "level": 2, "delegate": "[PUBLIC_KEY_HASH]",
    "slots":
      [ 1, 6, 13, 16, 27, 28, 30, 34, 39, 45, 61, 72, 81, 82, 86, 88, 91, 92,
        100, 107, 113, 116, 121, 132, 134, 136, 143, 154, 157, 176, 179, 182,
        187, 189, 192, 193, 197, 199, 202, 222, 226, 227, 232, 233, 235, 244,
        255 ], "estimated_time": "[TIMESTAMP]" } ]

./tezos-client rpc get /chains/main/blocks/head/helpers/levels_in_current_cycle
{ "first": 1, "last": 8 }
