rpc/hangzhou.client.others.out

./tezos-client rpc get /chains/main/blocks/head/context/constants
{ "proof_of_work_nonce_size": 8, "nonce_length": 32,
  "max_anon_ops_per_block": 132, "max_operation_data_length": 32768,
  "max_proposals_per_delegate": 20, "max_micheline_node_count": 50000,
  "max_micheline_bytes_limit": 50000,
  "max_allowed_global_constants_depth": 10000,
  "cache_layout": [ "100000000" ], "michelson_maximum_type_size": 2001,
  "preserved_cycles": 2, "blocks_per_cycle": 8, "blocks_per_commitment": 4,
  "blocks_per_roll_snapshot": 4, "blocks_per_voting_period": 64,
  "time_between_blocks": [ "1", "0" ], "endorsers_per_block": 256,
  "hard_gas_limit_per_operation": "1040000",
  "hard_gas_limit_per_block": "5200000", "proof_of_work_threshold": "-1",
  "tokens_per_roll": "8000000000", "seed_nonce_revelation_tip": "125000",
  "origination_size": 257, "block_security_deposit": "640000000",
  "endorsement_security_deposit": "2500000",
  "baking_reward_per_endorsement": [ "78125", "11719" ],
  "endorsement_reward": [ "78125", "52083" ], "cost_per_byte": "250",
  "hard_storage_limit_per_operation": "60000", "quorum_min": 2000,
  "quorum_max": 7000, "min_proposal_quorum": 500, "initial_endorsers": 1,
  "delay_per_missing_endorsement": "1", "minimal_block_delay": "1",
  "liquidity_baking_subsidy": "2500000",
  "liquidity_baking_sunset_level": 4096,
  "liquidity_baking_escape_ema_threshold": 1000000 }

./tezos-client rpc get /chains/main/blocks/head/helpers/baking_rights
[ { "level": 2, "delegate": "[PUBLIC_KEY_HASH]",
    "priority": 0, "estimated_time": "[TIMESTAMP]" },
  { "level": 2, "delegate": "[PUBLIC_KEY_HASH]",
    "priority": 2, "estimated_time": "[TIMESTAMP]" },
  { "level": 2, "delegate": "[PUBLIC_KEY_HASH]",
    "priority": 4, "estimated_time": "[TIMESTAMP]" },
  { "level": 2, "delegate": "[PUBLIC_KEY_HASH]",
    "priority": 6, "estimated_time": "[TIMESTAMP]" },
  { "level": 2, "delegate": "[PUBLIC_KEY_HASH]",
    "priority": 8, "estimated_time": "[TIMESTAMP]" } ]

./tezos-client rpc get '/chains/main/blocks/head/helpers/current_level?offset=0'
{ "level": 1, "level_position": 0, "cycle": 0, "cycle_position": 0,
  "expected_commitment": false }

./tezos-client rpc get /chains/main/blocks/head/helpers/endorsing_rights
[ { "level": 1, "delegate": "[PUBLIC_KEY_HASH]",
    "slots":
      [ 2, 13, 17, 19, 23, 24, 31, 34, 40, 46, 48, 53, 56, 60, 61, 62, 68,
        70, 75, 76, 82, 87, 89, 90, 96, 105, 121, 122, 127, 129, 135, 139,
        140, 141, 148, 149, 156, 161, 162, 172, 184, 186, 190, 198, 202, 215,
        225, 229, 230, 232, 237, 238, 239, 244, 247, 252, 253, 255 ],
    "estimated_time": "[TIMESTAMP]" },
  { "level": 1, "delegate": "[PUBLIC_KEY_HASH]",
    "slots":
      [ 0, 4, 6, 11, 15, 20, 22, 36, 37, 41, 44, 47, 55, 59, 65, 66, 67, 81,
        83, 91, 101, 108, 110, 112, 113, 115, 116, 130, 133, 136, 144, 151,
        154, 167, 177, 183, 185, 187, 201, 203, 206, 207, 209, 212, 219, 226,
        227, 234, 235, 236, 242, 246, 249, 250 ],
    "estimated_time": "[TIMESTAMP]" },
  { "level": 1, "delegate": "[PUBLIC_KEY_HASH]",
    "slots":
      [ 1, 7, 8, 10, 18, 25, 28, 35, 39, 42, 43, 45, 54, 63, 69, 72, 92, 93,
        95, 98, 99, 103, 104, 114, 117, 118, 119, 124, 126, 138, 150, 155,
        158, 160, 163, 164, 165, 168, 173, 180, 189, 210, 211, 216, 217, 222,
        223, 233, 243 ], "estimated_time": "[TIMESTAMP]" },
  { "level": 1, "delegate": "[PUBLIC_KEY_HASH]",
    "slots":
      [ 3, 5, 12, 16, 27, 30, 32, 38, 49, 50, 51, 52, 58, 73, 74, 85, 86, 94,
        100, 107, 111, 123, 128, 131, 132, 134, 137, 142, 143, 153, 157, 166,
        169, 170, 175, 178, 181, 182, 194, 195, 196, 204, 205, 208, 213, 214,
        220, 221, 224, 228, 231, 240, 241, 251, 254 ],
    "estimated_time": "[TIMESTAMP]" },
  { "level": 1, "delegate": "[PUBLIC_KEY_HASH]",
    "slots":
      [ 9, 14, 21, 26, 29, 33, 57, 64, 71, 77, 78, 79, 80, 84, 88, 97, 102,
        106, 109, 120, 125, 145, 146, 147, 152, 159, 171, 174, 176, 179, 188,
        191, 192, 193, 197, 199, 200, 218, 245, 248 ],
    "estimated_time": "[TIMESTAMP]" } ]

./tezos-client rpc get /chains/main/blocks/head/helpers/levels_in_current_cycle
{ "first": 1, "last": 8 }
