encoding/hangzhou.delegate.frozen_balance.out

./tezos-codec encode 011-PtHangz2.delegate.frozen_balance from '{
  "deposits": "0",
  "fees": "100000000000",
  "rewards": "23425"
}'
0080d0dbc3f40281b701

./tezos-codec decode 011-PtHangz2.delegate.frozen_balance from 0080d0dbc3f40281b701
{ "deposits": "0", "fees": "100000000000", "rewards": "23425" }
